{
  "compilerOptions": {
    "module": "commonjs",
    "noImplicitAny": true,
    "strictNullChecks": true,
    "removeComments": true,
    "preserveConstEnums": true,
    "sourceMap": true,
    "typeRoots": [
      "../../node_modules/@types"
    ],
    "types": [
      "jasmine",
      "core-js"
    ],
    "lib": ["es6", "dom"],
    "target": "es5"
  },
  "include": [
    "**/*"
  ],
  "exclude": [
    "transpiled",
    "complete",
    "**/*.spec.ts"
  ]
}
